{
    "clickable_minimum_required": "6.21.0",
    "builder": "custom",
    "build": "DEBUG_BUILD=${DEBUG_BUILD} ${ROOT}/build.sh",
    "build_dir": "build/${ARCH_TRIPLET}",
    "install_dir": "${BUILD_DIR}/build/install-root/",
    "image_setup": {
      "run": [
        "ln -sf /usr/lib/qt5/bin/* /usr/lib/x86_64-linux-gnu/qt5/bin/"
      ]
    },
    "dependencies_host": [
        "binfmt-support",
        "libexpat1-dev",
        "libpipeline1",
        "libpython3-dev",
        "libpython3.5",
        "libpython3.5-dev",
        "libqbscore1",
        "libqbsqtprofilesetup1",
        "libqt5script5",
        "python-pip-whl",
        "python3-dev",
        "python3-pip",
        "python3-setuptools",
        "python3-wheel",
        "python3.5-dev",
        "qbs",
        "qbs-common",
        "qemu-user-static",
        "zlib1g-dev"
    ],
    "dependencies_target": [
        "libaccounts-qt5-dev",
        "qtbase5-dev",
        "libconnectivity-qt1-dev",
        "libsasl2-dev",
        "libsasl2-modules",
        "libsignon-plugins-common1",
        "libsignon-qt5-dev",
        "libsnappy-dev",
        "libsnappy1v5",
        "qml-module-qtquick-privatewidgets",
        "qt5-qmake-bin",
        "signon-plugin-oauth2",
        "signon-plugin-oauth2-dev",
        "signon-plugin-sasl",
        "signon-plugin-sasl-dev"
    ],
    "libraries": {
        "update-ts-files": {
            "builder": "custom",
            "build": "cd ${ROOT} && scripts/update-i18n Dekko plugins/ubuntu-plugin plugins/ubuntu-notification-plugin plugins/cache-manager-plugin",
            "dependencies_host": [
                "qttools5-dev-tools"
            ]
        }
    }
}
